…
``` r
titanic %>%
count(idade,classe= "1 classe",sobreviveu= "nao",sexo="masculino")
```

    ## # A tibble: 89 x 5
    ##    idade classe   sobreviveu sexo          n
    ##    <dbl> <chr>    <chr>      <chr>     <int>
    ##  1  0.42 1 classe nao        masculino     1
    ##  2  0.67 1 classe nao        masculino     1
    ##  3  0.75 1 classe nao        masculino     2
    ##  4  0.83 1 classe nao        masculino     2
    ##  5  0.92 1 classe nao        masculino     1
    ##  6  1    1 classe nao        masculino     7
    ##  7  2    1 classe nao        masculino    10
    ##  8  3    1 classe nao        masculino     6
    ##  9  4    1 classe nao        masculino    10
    ## 10  5    1 classe nao        masculino     4
    ## # ... with 79 more rows
…
